﻿delete from lmm_workbookregex where lang = 'TPO'
insert into lmm_workbookregex (lang, key, value) select 'TPO', 'date1', '^(?<fromday>\d+)\s*d*e*\s*(?<month1>[^\s]*)\s*d*e*\s*\d*\d*\d*\d*[–-]\s*(?<thruday>\d+)[.]*°*\sde\s(?<month2>\D+)\s*d*e*\s*\d*\d*\d*\d*$'
insert into lmm_workbookregex (lang, key, value) select 'TPO', 'song', 'Cântico\s*(\d+)(.*)'
insert into lmm_workbookregex (lang, key, value) select 'TPO', 'timing', '[(](?<timing>\d+)\smin[.]*(?<timingextra>[^)]*)[)]'
insert into lmm_workbookregex (lang, key, value) select 'TPO', 'study', '[(]Leitura.e.Ensino.lição.(?<source>\d+)[)]'
insert into lmm_workbookregex (lang, key, value) select 'TPO', 'assignment1', '•(?<theme>[^•]+)•*(?<source>.*)'
